{
  "label-titleAplication" : "CyM App",
  "label-messageLoginGoogle+" : "Iniciar con G+",
  "label-messageOtherLogin" : "o ingresa con",
  "placeholder-email" : "Correo Electr\u00f3nico",
  "placeholder-inpassword" : "Contrase\u00f1a",
  "label-messageWithOutAccount" : "No posees cuenta?",
  "label-messageLogin" : "Ingresar",
  "button-login" : "Iniciar Sesi\u00f3n",
  "label-messageRegister" : "Crea tu cuenta",
  "label-messageherelink": "aqu\u00ed",
  "menu-home" : "Inicio",
  "menu-map" : "Mapa",
  "menu-travel" : "Viajes",
  "menu-document" : "Documentos",
  "menu-tracking" : "Seguimiento GPS",
  "menu-mustseeanddo" : "Qu\u00e9 ver y Qu\u00e9 hacer",
  "menu-syncronization" : "Sincronizar",
  "menu-qr" : "Lector QR",
  "menu-out" : "Salir",
  "label-messagesynctitle" : "Sincronizar Datos",
  "label-messageinfosync" : "Esta opci\u00f3n le permitir\u00e1 sincronizar la informaci\u00f3n de su dispositivo m\u00f3vil de CyM.",
  "button-sync" : "OK",
  "label-messageuserdata" : "Datos de usuario",
  "labelinput-email" : "Correo electr\u00f3nico",
  "labelinput-name" : "Nombre",
  "placeholder-name" : "Nombre Usuario",
  "labelinput-lastname" : "Apellido",
  "placeholder-lastname" : "Apellido Usuario",
  "labelinput-current-password" : "Contrase\u00f1a Actual",
  "placeholder-current-password" : "Contrase\u00f1a Actual",
  "labelinput-new-password" : "Nueva Contrase\u00f1a",
  "placeholder-new-password" : "Nueva Contrase\u00f1a",
  "labelinput-confirmpassword" : "Confirmar Nueva Contrase\u00f1a",
  "placeholder-confirmpassword" : "Confirmar Contrase\u00f1a",
  "button-update" : "Guardar",
  "title-profile" : "Perfil",
  "labellink-profile": "Perfil",
  "labellink-out": "Salir",
  "title-travel" : "Viajes",
  "header-travel" : "Viajes Planificados",
  "label-messagenotravel" : "No tiene viajes guardados.",
  "labelinput-budget":"Presupuesto:",
  "labelinput-description":"Descripci\u00f3n:",
  "labelinput-dategoing":"Fecha Salida:",
  "labelinput-datearrival":"Fecha Regreso:",
  "button-addtravel" : "Nuevo",
  "button-submitaddtravel" : "Guardar",
  "label-messagepartner" : " Compa\u00f1eros",
  "placeholder-search" : "Correo Electr\u00f3nico",
  "button-cancel" : "Cancelar",
  "header-addtravel" : "Agregar Viaje",
  "header-traveldata" : "Datos Viaje",
  "label-budget":"Presupuesto ($)",
  "label-traveldescription":"Descripci\u00f3n",
  "label-dategoing":"Fecha Salida",
  "label-datearrival":"Fecha Regreso",
  "label-travelname":"Nombre",
  "label-country" : "Pa\u00eds",
  "placeholder-budget":"Presupuesto Viaje",
  "placeholder-traveldescription":"Descripci\u00f3n Viaje",
  "placeholder-dategoing":"Fecha Salida",
  "placeholder-datearrival":"Fecha Regreso",
  "placeholder-travelname":"Nombre Viaje",
  "labelmessage-position" : "Encu\u00e9ntrame",
  "title-destiny" : "Destinos",
  "header-adddestiny" : "Agregar Destino",
  "label-state":"Estado",
  "labellink-recommendedroutes" : "Destinos Recomendados",
  "label-location":"Municipio",
  "label-mustseeanddo": "Qu\u00e9 ver y Qu\u00e9 hacer",
  "label-date": "Fecha",
  "label-descriptiondestiny" : "Descripci\u00f3n del Destino",
  "placeholder-descriptiondestiny" : "Descripci\u00f3n del Destino",
  "button-adddestiny" : "Agregar Destino",
  "header-updatetravel" : "Actualizar Viaje",
  "button-updatetravel" : "Guardar",
  "header-recommendedroutes" : "Recomendados",
  "label-messagenodestiny" : "No tiene destinos asociados.",
  "header-tracking" : "Seguimientos GPS Registrados",
  "header-listtracking" : "Lista de Seguimientos",
  "label-messagenotracking" : "No tiene Seguimientos guardados.",
  "labelinput-date" : "Fecha:",
  "button-adddestiny" : "Guardar",
  "header-updatetracking" : "Seguimientos GPS",
  "header-addtracking" : "Seguimientos GPS",
  "labelmessage-updatetracking" : "Actualizar Seguimiento GPS",
  "header-trackingdata" : "Datos Seguimiento",
  "label-trackingname":"Nombre",
  "placeholder-trackingname":"Nombre Seguimiento GPS",
  "labelmessage-location" : "Localizaci\u00f3n",
  "label-nolocationtraking" : "No tiene localizaciones asociadas a este seguimiento.",
  "labelmessage-updatetracking" : "Actualizar Seguimiento GPS",
  "button-updatetracking" : "Guardar",
  "header-addlocation" : "Agregar Localizaci\u00f3n",
  "label-locationname":"Nombre",
  "placeholder-locationname":"Nombre Localizaci\u00f3n",
  "label-locationdescription":"Descripci\u00f3n",
  "placeholder-locationdescription":"Descripci\u00f3n Localizaci\u00f3n",
  "button-addlocation" : "Guardar",
  "labelmessage-addtracking" : "Agregar Seguimiento GPS",
  "label-locationdata" : "Datos Localizaci\u00f3n",
  "button-addtracking" : "Nuevo",
  "button-submitaddtracking" : "Guardar",
  "title-book" : "Libros Tur\u00edsticos",
  "title-mustseeanddolist" : "Listar Qu\u00e9 Ver y Qu\u00e9 Hacer",
  "title-mustseeanddo" : "Qu\u00e9 Ver y Qu\u00e9 Hacer",
  "header-mustseeanddo" : "Qu\u00e9 Ver y Qu\u00e9 Hacer",
  "label-countrystate" : "Pa\u00eds - Estado",
  "labelmessage-map" : "Mapa",
  "title-mustseeanddolocation" : "Localidades",
  "header-mustseeanddolocation" : "Localidades",
  "labelmessage-smalldescription" : "Descripci\u00f3n Breve",
  "title-document" : "Documentos",
  "header-document" : "Agregar Documento",
  "labelmessage-datadocument" : "Datos del Documento",
  "label-documentname" : "Nombre",
  "placeholder-documentname" : "Nombre Documento",
  "label-documentdescription" : "Descripci\u00f3n",
  "placeholder-documentdescription" : "Descripci\u00f3n Documento",
  "placeholder-geograficposition" : "Posici\u00f3n Geogr\u00e1fica",
  "labelmessage-savegeographyposition" : "Guardar Posici\u00f3n Geogr\u00e1fica",
  "label-addattachment" : "Adjuntar Archivo (archivos .jpg, .jpeg, .png, .doc, .docx, .pdf)",
  "label-files" : "Archivos",
  "labelmessage-noattachment" : "No tiene archivos adjuntados.",
  "label-takepicture" : "Tomar Foto",
  "label-messagenopicture" : "No tiene fotos adjuntadas",
  "button-adddocument" : "Nuevo",
  "button-submitadddocument" : "Guardar",
  "label-choosefile" : "Choose file",
  "label-images" : "Im\u00e1genes",
  "header-documentlist" : "Documentos Registrados",
  "label-documentlist" : "Listado de Documentos",
  "label-messagenodocument" : "No tiene documentos guardados.",
  "button-updatedocument" : "Guardar",
  "header-updatedocument" : "Actualizar Documento",
  "title-home" : "Inicio",
  "title-map" : "Mapa",
  "title-sync" : "Sincronizaci\u00f3n",
  "label-languages":"Idiomas",
  "labeloption-english":"Ingl\u00e9s",
  "labeloption-spanish":"Espa\u00f1ol",
  "title-tracking" : "Seguimiento GPS",
  "messageserror-sync":"Ha fallado la sincronización, intente más tarde.",
  "messageserror-sync-no-internet":"No se puede ejecutar la sincronización, no se cuenta con una conexión a internet.",
  "messageserror-recovery-no-internet":"No se puede ejecutar la recuperación, no se cuenta con una conexión a internet.",
  "messageserror-servererror":"Ha ocurrido un error.",
  "messageserror-userpasswordinvalid":"El usuario o clave invalida.",
  "messageserror-autherror":"Ha ocurrido un error en el proceso de autenticaci\u00f3n.",
  "messageserror-userregister":"Error registrando al nuevo usuario.",
  "messageserror-userregisterserver":"Ha ocurrido un error al registrar el usuario.",
  "messageserror-newuserregister":"Error registrando los datos del nuevo usuario.",
  "messageserror-errorserver":"Ha ocurrido un error, validamos el c\u00f3digo del error: ",
  "messageserror-errorserver_validate":"Ha ocurrido un error, verifique su conexión a internet",
  "messageserror-errortoadmin":"Ha ocurrido un error. Comun\u00edquese con el Administrador.",
  "messageserror-usernamenovalid":"Nombre de usuario ya registrado en el sistema.",
  "messageserror-loadprofilenofound":"Error cargando datos perfil. Datos no encontrados.",
  "messageserror-loadprofileno":"Error cargando datos perfil",
  "messageserror-syncbooklocation":"Error al sincronizar las locaciones del libro.",
  "messageserror-syncbookserver":"Error al sincronizar libros.",
  "messageserror-syncbooklocationserver":"Error al sincronizar las localidades del libro.",
  "messageserror-synctravelserver":"Error al sincronizar los viajes.",
  "messageserror-synctracking":"Error al sincronizar los seguimientos GPS.",
  "messageserror-synctrackingserver":"Error al sincronizar los Seguimientos GPS.",
  "messageserror-synclocationdetail":"Error al sincronizar el detalle de las locaciones del libro.",
  "messageserror-savedocument":"Error al guardar el documento.",
  "messageserror-gettracking":"Error al buscar seguimientos usuario.",
  "messageserror-updatedocument":"Error al actualizar el documento.",
  "messageserror-deletedocument":"Error al eliminar el documento.",
  "messagessuccess-sync":"Proceso de sincronizaci\u00f3n exitoso.",
  "messageserror-synctracking":"Error al sincronizar Seguimientos.",
  "messageserror-selectcuepoints":"Error al seleccionar destinos por seguimiento GPS.",
  "messageserror-findtrackingusersync":"Error al buscar seguimientos usuario para sincronizar.",
  "messageserror-finddownloadsbooks":"Error al buscar los libros descargados.",
  "messageserror-downloadsbooks":"Error al buscar los libros.",
  "messageserror-findcountrys":"Error al buscar los pa\u00edses.",
  "messageserror-findstates":"Error al buscar los estados.",
  "messageserror-findalllocation":"Error al buscar todos las localidades.",
  "messageserror-database":"Error en base de datos.",
  "messageserror-no-mustseeanddo":"Este libro no posee Sitios Turísticos.",
  "messageserror-no-book":"No se tienen libros turísticos, intente sincronizar contra el servidor.",
  "messageserror-findalldocument":"Error al buscar todos los documentos.",
  "messageserror-savedocument":"Error al guardar el documento.",
  "messageserror-updatedocument":"Error al actualizar el documento.",
  "messageserror-deletedocument":"Error al eliminar el documento.",
  "messageserror-updateprofile":"Ocurrio un error actualizando los detalles del perfil.",
  "messagessuccess-updateprofile":"Actualizaci\u00f3n exitosa.",
  "messageserror-updatecredential":"Error actualizando las credenciales de seguridad",
  "messageserror-invalidvalue":"Ha ingresado valores inv\u00e1lidos.",
  "messageserror-googleconnect":"Error conectando con Google, verifique el estado de conexión a internet.",
  "messageserror-googleconnectnotsupported":"El inicio de sesión usando Google Plus no es soportado",
  "messageserror-usernotlogin":"Usuario no logeado.",
  "messageserror-deletetrip":"Ha ocurrido un error al eliminar el viaje.",
  "messageserror-selectcountry":"Debe seleccionar un pa\u00eds.",
  "messageserror-laodbookcountrys":"Error cargando libros disponibles (Pa\u00edses).",
  "messageserror-wrongdateinwithdestiny":"Fecha de Regreso inv\u00e1lida con relaci\u00f3n a los destinos seleccionados.",
  "messageserror-wrongdateoutwithdestiny":"Fecha de salida inv\u00e1lida con relaci\u00f3n a los destinos seleccionados.",
  "messageserror-wrongdateout":"Fecha de salida inv\u00e1lida.",
  "messageserror-wrongdatein":"Fecha de Regreso inv\u00e1lida.",
  "messageserror-wrongdrescriptiontrip":"Descripci\u00f3n de viaje inv\u00e1lida.",
  "messageserror-wrongbugettrip":"Presupuesto  del viaje inv\u00e1lido.",
  "messageserror-wrongcountrytrip":"Debe seleccionar el Pa\u00eds.",
  "messageserror-wrongnametrip":"Nombre de viaje, inv\u00e1lido.",
  "messageserror-findmustseeanddo":"Error buscando Qu\u00e9 ver y Qu\u00e9 hacer.",
  "messageserror-errorintravel":"Existe un error con el viaje que se desea cargar.",
  "messageserror-findlocation":"Error buscando localidad.",
  "messageserror-datedetinyrequired":"El campo fecha de destino es obligatorio.",
  "messageserror-datedestinyouttrip":"La fecha de destino no puede ser inferior a la fecha de salida del Viaje.",
  "messageserror-datedestinyintrip":"La fecha de destino no puede ser inferior a la fecha de Regreso del Viaje.",
  "messageserror-wrongdatedestinyouttrip":"La fecha de destino debe estar entre las fechas del viaje: {{ dateGoing }} - {{ dateArrival }}",
  "messageserror-alreadydestinationonsamedate": "En este viaje, ya se tiene un destino con esta fecha y municipio, puede proceder a editarlo",
  "messageserror-destinywithsamedate":"Ya tiene un destino con la fecha seleccionada.",
  "messageserror-wrongnametracking":"Nombre de seguimiento inv\u00e1lido.",
  "messageserror-namelocationrequired":"Debe seleccionar el tipo de localización.",
  "messageserror-descriptionlocationrequired":"Descripci\u00f3n de localizaci\u00f3n inv\u00e1lido. No puede ser vac\u00edo.",
  "messageserror-wrongnamelocation":"Debe seleccionar el tipo de seguimiento",
  "messageserror-wrongdescriptionlocation":"Descripci\u00f3n de localizaci\u00f3n inv\u00e1lido.",
  "messageserror-mustseeanddonotfound":"Nombre de existe Qu\u00e9 ver y Qu\u00e9 hacer.",
  "messageserror-wrongnamedocument":"Nombre de documento inv\u00e1lido.",
  "messageserror-wrongdescriptiondocument":"Descripci\u00f3n de documento inv\u00e1lido.",
  "label-deletedocumentnotificatioconfirm1":"Desea eliminar el documento ",
  "label-deletedocumentnotificatioconfirm2":"Confirmaci\u00f3n ",
  "label-deletedocumentnotificatioconfirm3":"Aceptar,Cancelar",
  "label-deletepicturenotificatioconfirm1":"Desea eliminar la foto ",
  "label-deletepicturenotificatioconfirm2":"Confirmaci\u00f3n ",
  "label-deletepicturenotificatioconfirm3":"Aceptar,Cancelar",
  "label-deletetravelnotificatioconfirm1":"Desea eliminar el viaje ",
  "label-deletetravelnotificatioconfirm2":"Confirmaci\u00f3n ",
  "label-deletetravelnotificatioconfirm3":"Aceptar,Cancelar",
  "label-deletelocationnotificatioconfirm1":"Desea eliminar la locaci\u00f3n ",
  "label-deletelocationnotificatioconfirm2":"Confirmaci\u00f3n ",
  "label-deletelocationnotificatioconfirm3":"Aceptar,Cancelar",
  "label-deletetrackingnotificatioconfirm1":"Desea eliminar el seguimiento ",
  "label-deletetrackingnotificatioconfirm2":"Confirmaci\u00f3n ",
  "label-deletetrackingnotificatioconfirm3":"Aceptar,Cancelar",
  "label-deletedestinynotificatioconfirm1":"Desea eliminar el destino ",
  "label-deletedestinynotificatioconfirm2":"Confirmaci\u00f3n ",
  "label-deletedestinynotificatioconfirm3":"Aceptar,Cancelar",
  "label-picturesizenotificatioconfirm1":"Tama\u00f1o del archivo m\u00e1ximo permitido 1Mb.",
  "label-picturesizenotificatioconfirm2":"Advertencia ",
  "label-picturesizenotificatioconfirm3":"Aceptar",
  "label-qrcodenotificatioconfirm2":"Código QR",
  "label-arcodenotificatioconfirm2":"Imagen AR",
  "label-formatfilenotificatioconfirm1":"El formato del archivo no corresponde. Formatos permitidos: .jpg, .jpeg, .png, .doc, .pdf",
  "label-formatfilenotificatioconfirm2":"Advertencia ",
  "label-formatfilenotificatioconfirm3":"Aceptar",
  "label-notvalidapptofileconfirm1":"No posee una aplicaci\u00f3n con el que se pueda abrir este archivo.",
  "label-notvalidapptofileconfirm2":"Advertencia ",
  "label-notvalidapptofileconfirm3":"Aceptar",
  "label-notvalidappconfirm1":"No posee una aplicaci\u00f3n con el que se pueda abrir este archivo.",
  "label-notvalidappconfirm2":"Advertencia ",
  "label-notvalidappconfirm3":"Aceptar",
  "label-notdocumentfound":"No existe el documento",
  "messageserror-findusersync":"Error al usuario para sincronizar.",
  "messageserror-disableMapFailLocation":"Ha Ocurrido un error obteniendo su localizaci\u00f3n.",
  "messageserror-noconnectiontologin":"Debe estar conectado a la red para ingresar por primera vez.",
  "messagetemplate-starting":"Iniciando...",
  "messagetemplate-startingsync":"Espere mientras se sincroniza la aplicación...",
  "messagetemplate-syncserver":"Sincronizando informaci\u00f3n del usuario con servidor CYM......",
  "messagetemplate-downloadbook":"Descargando Informaci\u00f3n del libro...",
  "messagetemplate-loadmap":"Cargando el Mapa...",
  "messagetemplate-updatebook" : "Validando actualizaciones del libro en servidor CYM...",
  "label-profileimage" : "Foto Perfil",
  "link-recoverypassword" : "¿Has olvidado tu contraseña?",
  "label-qrinvalid" : "Este código QR no corresponde a la aplicación o al sitio turístico seleccionado",
  "label-arinvalid" : "El sitio turístico seleccionado no tiene información de Realidad Aumentada",
  "title-newdestiny" : "Agregar Destino",
  "title-editdestiny" : "Actualizar Destino",
  "button-updatedestiny" : "Guardar",
  "messageconfirm-downloadbook1" : "Usted no posee este libro ",
  "messageconfirm-downloadbook2" : " desea descargarlo en su m\u00f3vil? ",
  "messageserror-invaliduserrecovery":"Debe ingresar el correo electr\u00f3nico que utiliz\u00f3 al registrarse.",
  "messageserror-usernotregister" : "El usuario no se encuentra registrado en el sistema.",
  "messagessuccess-recoverypassword" : "Su clave ha sido enviada satisfactoriamente.",
  "messageserror-recoverypassword" : "Ha ocurrido un error al recuperar su password.",
  "messageserror-registerwithgoogleplus" : "Usted se registro por Google+.",
  "messageserror-syncbookserver" : "Error al asignar libro.",
  "messgeerror-confirmnewpassword" : "Confirme su nueva clave.",
  "messgeerror-newpasswordequal" : "La nueva clave y la confirmaci\u00f3n de la clave deben ser iguales.",
  "messageserror-syncuserbooksserver": "Error al sincronizar los libros de los usuarios",
  "messageserror-syncbooklocationdetailserver": "Error al sincronizar el detalle de una ubicación",
  "messageserror-syncbookmustseeanddoserver": "Error al sincronizar los Que Ver y Que Hacer",
  "messageserror-syncbookmustseeanddodetailserver": "Error al sincronizar los detalles de los Que Ver y Que Hacer",
  "messageserror-syncbookstatesserver": "Error al sincronizar los estados geográficos",
  "messageserror-syncbookcountriesserver": "Error al sincronizar los países",
  "messageserror-noserver": "Presentamos problemas de comunicación con el servidor, intente más tarde",
  "header-security": "Seguridad",
  "title-login": "Inicia Sesi\u00f3n",

  "label-message-change-password": "¿Desea modificar su contrase\u00f1a? Haga click ",
  "label-message-not-change-password": "¿Cancelar modificaci\u00f3n de su contrase\u00f1a? Haga click ",

  "messageserror-current-password" : "Debe ingresar su contrase\u00f1a actual",
  "messageserror-new-password" : "Debe ingresar su nueva contrase\u00f1a",
  "messageserror-confirm-new-password" : "Debe ingresar la confirmaci\u00f3n de su nueva contrase\u00f1a",
  "messageserror-new-and-confirm-password-not-equal" : "La nueva contrase\u00f1a y su confirmaci\u00f3n no son iguales",
  "messageserror-wrong-current-password" : "Contrase\u00f1a actual incorrecta",
  "message-no-internet" : "No es posible obtener su localización actual, por favor verificar su conexión de Internet y que el GPS de su equipo móvil esté encendido.",
  "labelmessage-current-position" : "Aqui estoy",
  "label-price" : "Costo:",
  "label-free-mustseeanddo" : "GRATIS",
  "button-clear" : "Limpiar",
  "placeholder-filter" : "Filtrar",
  "label-locationtype" : "Tipo",
  "label-view-picture" : "Ver Imagen",
  "label-close" : "Cerrar",
  "placeholder-email-friend" : "Correo",
  "button-invite" : "Agregar",
  "button-enter-here": "ingresa aquí",
  "label-skip" : "omitir",
  "button-ok": "OK",
  "messageserror-recommended-duplicated" : "Los destinos recomendados seleccionados, para la fecha recomendada, ya está incluidos en el viaje",
  "label-loading" : "Cargando...",
  "title-municipality" : "Municipios",
  "label-date-preferred" : "Fecha para la visita",
  "messageserror-wrongdatepreferred":"Fecha de Visita inv\u00e1lida con relaci\u00f3n a las fechas del viaje.",
  "menu-share" : "Invitar Amigos",
  "button-send-invites" : "Enviar",
  "title-share" : "Compartir",
  "messageserror-no-friend" : "Debe escribir una dirección válida de correo",
  "messagessuccess-sentinvite" : "Su invitación ha sido enviada exitosamente.",
  "messageserror-noinvitesent" : "Ha ocurrido un error enviando la invitación.",
  "label-distance" : "Distancia desde tu ubicación: ",
  "messageserror-datepreferredrequired":"El campo fecha para la visita es obligatorio."
}
